interactions:
- request:
    body: null
    headers:
      Accept:
      - '*/*'
      Accept-Encoding:
      - gzip, deflate
      Authorization:
      - Bearer MOCKED_TOKEN
      Connection:
      - keep-alive
      Content-Type:
      - application/json
      User-Agent:
      - python-requests/2.32.5
    method: GET
    uri: https://api.spotify.com/v1/me/tracks?limit=5&offset=0
  response:
    body:
      string: '{"href":"https://api.spotify.com/v1/me/tracks?offset=0&limit=5","items":[{"added_at":"2025-12-28T17:59:49Z","track":{"album":{"album_type":"album","artists":[{"external_urls":{"spotify":"https://open.spotify.com/artist/163tK9Wjr9P9DmM0AVK7lm"},"href":"https://api.spotify.com/v1/artists/163tK9Wjr9P9DmM0AVK7lm","id":"163tK9Wjr9P9DmM0AVK7lm","name":"Lorde","type":"artist","uri":"spotify:artist:163tK9Wjr9P9DmM0AVK7lm"}],"available_markets":["AR","AU","AT","BE","BO","BR","BG","CA","CL","CO","CR","CY","CZ","DK","DO","DE","EC","EE","SV","FI","FR","GR","GT","HN","HK","HU","IS","IE","IT","LV","LT","LU","MY","MT","MX","NL","NZ","NI","NO","PA","PY","PE","PH","PL","PT","SG","SK","ES","SE","CH","TW","TR","UY","US","GB","AD","LI","MC","ID","JP","TH","VN","RO","ZA","SA","AE","BH","QA","OM","KW","EG","MA","DZ","TN","LB","JO","PS","IN","KZ","MD","UA","AL","BA","HR","ME","MK","RS","SI","KR","BD","PK","LK","GH","KE","NG","TZ","UG","AG","AM","BS","BB","BZ","BT","BW","CV","CW","DM","FJ","GM","GE","GD","GW","GY","HT","JM","KI","LS","LR","MW","MV","ML","MH","FM","NA","NR","NE","PW","PG","WS","SM","ST","SN","SC","SL","SB","KN","LC","VC","SR","TL","TO","TT","TV","VU","AZ","BI","KH","CM","TD","KM","GQ","SZ","GA","GN","KG","LA","MO","MR","MN","RW","TG","ZW","BJ","MG","MU","MZ","AO","CI","DJ","ZM","CD","CG","IQ","LY","TJ","VE","ET","XK"],"external_urls":{"spotify":"https://open.spotify.com/album/2B87zXm9bOWvAJdkJBTpzF"},"href":"https://api.spotify.com/v1/albums/2B87zXm9bOWvAJdkJBTpzF","id":"2B87zXm9bOWvAJdkJBTpzF","images":[{"height":640,"width":640,"url":"https://i.scdn.co/image/ab67616d0000b273f8553e18a11209d4becd0336"},{"height":300,"width":300,"url":"https://i.scdn.co/image/ab67616d00001e02f8553e18a11209d4becd0336"},{"height":64,"width":64,"url":"https://i.scdn.co/image/ab67616d00004851f8553e18a11209d4becd0336"}],"is_playable":true,"name":"Melodrama","release_date":"2017-06-16","release_date_precision":"day","total_tracks":11,"type":"album","uri":"spotify:album:2B87zXm9bOWvAJdkJBTpzF"},"artists":[{"external_urls":{"spotify":"https://open.spotify.com/artist/163tK9Wjr9P9DmM0AVK7lm"},"href":"https://api.spotify.com/v1/artists/163tK9Wjr9P9DmM0AVK7lm","id":"163tK9Wjr9P9DmM0AVK7lm","name":"Lorde","type":"artist","uri":"spotify:artist:163tK9Wjr9P9DmM0AVK7lm"}],"available_markets":["AR","AU","AT","BE","BO","BR","BG","CA","CL","CO","CR","CY","CZ","DK","DO","DE","EC","EE","SV","FI","FR","GR","GT","HN","HK","HU","IS","IE","IT","LV","LT","LU","MY","MT","MX","NL","NZ","NI","NO","PA","PY","PE","PH","PL","PT","SG","SK","ES","SE","CH","TW","TR","UY","US","GB","AD","LI","MC","ID","JP","TH","VN","RO","ZA","SA","AE","BH","QA","OM","KW","EG","MA","DZ","TN","LB","JO","PS","IN","KZ","MD","UA","AL","BA","HR","ME","MK","RS","SI","KR","BD","PK","LK","GH","KE","NG","TZ","UG","AG","AM","BS","BB","BZ","BT","BW","CV","CW","DM","FJ","GM","GE","GD","GW","GY","HT","JM","KI","LS","LR","MW","MV","ML","MH","FM","NA","NR","NE","PW","PG","WS","SM","ST","SN","SC","SL","SB","KN","LC","VC","SR","TL","TO","TT","TV","VU","AZ","BI","KH","CM","TD","KM","GQ","SZ","GA","GN","KG","LA","MO","MR","MN","RW","TG","ZW","BJ","MG","MU","MZ","AO","CI","DJ","ZM","CD","CG","IQ","LY","TJ","VE","ET","XK"],"disc_number":1,"duration_ms":277506,"explicit":false,"external_ids":{"isrc":"NZUM71700072"},"external_urls":{"spotify":"https://open.spotify.com/track/6K8VQ84MqhsoakN5MjrnVR"},"href":"https://api.spotify.com/v1/tracks/6K8VQ84MqhsoakN5MjrnVR","id":"6K8VQ84MqhsoakN5MjrnVR","is_local":false,"is_playable":true,"name":"Supercut","popularity":78,"preview_url":null,"track_number":9,"type":"track","uri":"spotify:track:6K8VQ84MqhsoakN5MjrnVR"}},{"added_at":"2025-12-28T17:59:46Z","track":{"album":{"album_type":"album","artists":[{"external_urls":{"spotify":"https://open.spotify.com/artist/5YGY8feqx7naU7z4HrwZM6"},"href":"https://api.spotify.com/v1/artists/5YGY8feqx7naU7z4HrwZM6","id":"5YGY8feqx7naU7z4HrwZM6","name":"Miley
        Cyrus","type":"artist","uri":"spotify:artist:5YGY8feqx7naU7z4HrwZM6"}],"available_markets":["AR","AU","AT","BE","BO","BR","BG","CA","CL","CO","CR","CY","CZ","DK","DO","DE","EC","EE","SV","FI","FR","GR","GT","HN","HK","HU","IS","IE","IT","LV","LT","LU","MY","MT","MX","NL","NZ","NI","NO","PA","PY","PE","PH","PL","PT","SG","SK","ES","SE","CH","TW","TR","UY","US","GB","AD","LI","MC","ID","JP","TH","VN","RO","IL","ZA","SA","AE","BH","QA","OM","KW","EG","MA","DZ","TN","LB","JO","PS","IN","BY","KZ","MD","UA","AL","BA","HR","ME","MK","RS","SI","KR","BD","PK","LK","GH","KE","NG","TZ","UG","AG","AM","BS","BB","BZ","BT","BW","BF","CV","CW","DM","FJ","GM","GE","GD","GW","GY","HT","JM","KI","LS","LR","MW","MV","ML","MH","FM","NA","NR","NE","PW","PG","PR","WS","SM","ST","SN","SC","SL","SB","KN","LC","VC","SR","TL","TO","TT","TV","VU","AZ","BN","BI","KH","CM","TD","KM","GQ","SZ","GA","GN","KG","LA","MO","MR","MN","NP","RW","TG","UZ","ZW","BJ","MG","MU","MZ","AO","CI","DJ","ZM","CD","CG","IQ","LY","TJ","VE","ET","XK"],"external_urls":{"spotify":"https://open.spotify.com/album/5BRhg6NSEZOj0BR6Iz56fR"},"href":"https://api.spotify.com/v1/albums/5BRhg6NSEZOj0BR6Iz56fR","id":"5BRhg6NSEZOj0BR6Iz56fR","images":[{"height":640,"width":640,"url":"https://i.scdn.co/image/ab67616d0000b273136d46f65c783bd9742dfc6d"},{"height":300,"width":300,"url":"https://i.scdn.co/image/ab67616d00001e02136d46f65c783bd9742dfc6d"},{"height":64,"width":64,"url":"https://i.scdn.co/image/ab67616d00004851136d46f65c783bd9742dfc6d"}],"is_playable":true,"name":"Plastic
        Hearts","release_date":"2020-11-27","release_date_precision":"day","total_tracks":15,"type":"album","uri":"spotify:album:5BRhg6NSEZOj0BR6Iz56fR"},"artists":[{"external_urls":{"spotify":"https://open.spotify.com/artist/5YGY8feqx7naU7z4HrwZM6"},"href":"https://api.spotify.com/v1/artists/5YGY8feqx7naU7z4HrwZM6","id":"5YGY8feqx7naU7z4HrwZM6","name":"Miley
        Cyrus","type":"artist","uri":"spotify:artist:5YGY8feqx7naU7z4HrwZM6"}],"available_markets":["AR","AU","AT","BE","BO","BR","BG","CA","CL","CO","CR","CY","CZ","DK","DO","DE","EC","EE","SV","FI","FR","GR","GT","HN","HK","HU","IS","IE","IT","LV","LT","LU","MY","MT","MX","NL","NZ","NI","NO","PA","PY","PE","PH","PL","PT","SG","SK","ES","SE","CH","TW","TR","UY","US","GB","AD","LI","MC","ID","JP","TH","VN","RO","IL","ZA","SA","AE","BH","QA","OM","KW","EG","MA","DZ","TN","LB","JO","PS","IN","BY","KZ","MD","UA","AL","BA","HR","ME","MK","RS","SI","KR","BD","PK","LK","GH","KE","NG","TZ","UG","AG","AM","BS","BB","BZ","BT","BW","BF","CV","CW","DM","FJ","GM","GE","GD","GW","GY","HT","JM","KI","LS","LR","MW","MV","ML","MH","FM","NA","NR","NE","PW","PG","PR","WS","SM","ST","SN","SC","SL","SB","KN","LC","VC","SR","TL","TO","TT","TV","VU","AZ","BN","BI","KH","CM","TD","KM","GQ","SZ","GA","GN","KG","LA","MO","MR","MN","NP","RW","TG","UZ","ZW","BJ","MG","MU","MZ","AO","CI","DJ","ZM","CD","CG","IQ","LY","TJ","VE","ET","XK"],"disc_number":1,"duration_ms":205723,"explicit":false,"external_ids":{"isrc":"USRC12003717"},"external_urls":{"spotify":"https://open.spotify.com/track/6qCsKKS7Ol63SJW3LOIX5R"},"href":"https://api.spotify.com/v1/tracks/6qCsKKS7Ol63SJW3LOIX5R","id":"6qCsKKS7Ol63SJW3LOIX5R","is_local":false,"is_playable":true,"name":"Plastic
        Hearts","popularity":61,"preview_url":null,"track_number":2,"type":"track","uri":"spotify:track:6qCsKKS7Ol63SJW3LOIX5R"}},{"added_at":"2025-12-28T17:59:18Z","track":{"album":{"album_type":"album","artists":[{"external_urls":{"spotify":"https://open.spotify.com/artist/6Xgp2XMz1fhVYe7i6yNAax"},"href":"https://api.spotify.com/v1/artists/6Xgp2XMz1fhVYe7i6yNAax","id":"6Xgp2XMz1fhVYe7i6yNAax","name":"Trippie
        Redd","type":"artist","uri":"spotify:artist:6Xgp2XMz1fhVYe7i6yNAax"}],"available_markets":["AR","AU","AT","BE","BO","BR","BG","CA","CL","CO","CR","CY","CZ","DK","DO","DE","EC","EE","SV","FI","FR","GR","GT","HN","HK","HU","IS","IE","IT","LV","LT","LU","MY","MT","MX","NL","NZ","NI","NO","PA","PY","PE","PH","PL","PT","SG","SK","ES","SE","CH","TW","TR","UY","US","GB","AD","LI","MC","ID","JP","TH","VN","RO","IL","ZA","SA","AE","BH","QA","OM","KW","EG","MA","DZ","TN","LB","JO","PS","IN","BY","KZ","MD","UA","AL","BA","HR","ME","MK","RS","SI","KR","BD","PK","LK","GH","KE","NG","TZ","UG","AG","AM","BS","BB","BZ","BT","BW","BF","CV","CW","DM","FJ","GM","GE","GD","GW","GY","HT","JM","KI","LS","LR","MW","MV","ML","MH","FM","NA","NR","NE","PW","PG","PR","WS","SM","ST","SN","SC","SL","SB","KN","LC","VC","SR","TL","TO","TT","TV","VU","AZ","BN","BI","KH","CM","TD","KM","GQ","SZ","GA","GN","KG","LA","MO","MR","MN","NP","RW","TG","UZ","ZW","BJ","MG","MU","MZ","AO","CI","DJ","ZM","CD","CG","IQ","LY","TJ","VE","ET","XK"],"external_urls":{"spotify":"https://open.spotify.com/album/6SpT5TOPIInmmwLyCcCAXX"},"href":"https://api.spotify.com/v1/albums/6SpT5TOPIInmmwLyCcCAXX","id":"6SpT5TOPIInmmwLyCcCAXX","images":[{"height":640,"width":640,"url":"https://i.scdn.co/image/ab67616d0000b2731c0aacb7cb42f20914d319f4"},{"height":300,"width":300,"url":"https://i.scdn.co/image/ab67616d00001e021c0aacb7cb42f20914d319f4"},{"height":64,"width":64,"url":"https://i.scdn.co/image/ab67616d000048511c0aacb7cb42f20914d319f4"}],"is_playable":true,"name":"Trip
        At Knight","release_date":"2021-08-21","release_date_precision":"day","total_tracks":18,"type":"album","uri":"spotify:album:6SpT5TOPIInmmwLyCcCAXX"},"artists":[{"external_urls":{"spotify":"https://open.spotify.com/artist/6Xgp2XMz1fhVYe7i6yNAax"},"href":"https://api.spotify.com/v1/artists/6Xgp2XMz1fhVYe7i6yNAax","id":"6Xgp2XMz1fhVYe7i6yNAax","name":"Trippie
        Redd","type":"artist","uri":"spotify:artist:6Xgp2XMz1fhVYe7i6yNAax"},{"external_urls":{"spotify":"https://open.spotify.com/artist/699OTQXzgjhIYAHMy9RyPD"},"href":"https://api.spotify.com/v1/artists/699OTQXzgjhIYAHMy9RyPD","id":"699OTQXzgjhIYAHMy9RyPD","name":"Playboi
        Carti","type":"artist","uri":"spotify:artist:699OTQXzgjhIYAHMy9RyPD"}],"available_markets":["AR","AU","AT","BE","BO","BR","BG","CA","CL","CO","CR","CY","CZ","DK","DO","DE","EC","EE","SV","FI","FR","GR","GT","HN","HK","HU","IS","IE","IT","LV","LT","LU","MY","MT","MX","NL","NZ","NI","NO","PA","PY","PE","PH","PL","PT","SG","SK","ES","SE","CH","TW","TR","UY","US","GB","AD","LI","MC","ID","JP","TH","VN","RO","IL","ZA","SA","AE","BH","QA","OM","KW","EG","MA","DZ","TN","LB","JO","PS","IN","BY","KZ","MD","UA","AL","BA","HR","ME","MK","RS","SI","KR","BD","PK","LK","GH","KE","NG","TZ","UG","AG","AM","BS","BB","BZ","BT","BW","BF","CV","CW","DM","FJ","GM","GE","GD","GW","GY","HT","JM","KI","LS","LR","MW","MV","ML","MH","FM","NA","NR","NE","PW","PG","PR","WS","SM","ST","SN","SC","SL","SB","KN","LC","VC","SR","TL","TO","TT","TV","VU","AZ","BN","BI","KH","CM","TD","KM","GQ","SZ","GA","GN","KG","LA","MO","MR","MN","NP","RW","TG","UZ","ZW","BJ","MG","MU","MZ","AO","CI","DJ","ZM","CD","CG","IQ","LY","TJ","VE","ET","XK"],"disc_number":1,"duration_ms":236883,"explicit":true,"external_ids":{"isrc":"QZJ842000983"},"external_urls":{"spotify":"https://open.spotify.com/track/5n4FTCMefvyKUjeWumdaWv"},"href":"https://api.spotify.com/v1/tracks/5n4FTCMefvyKUjeWumdaWv","id":"5n4FTCMefvyKUjeWumdaWv","is_local":false,"is_playable":true,"name":"Miss
        The Rage","popularity":74,"preview_url":null,"track_number":7,"type":"track","uri":"spotify:track:5n4FTCMefvyKUjeWumdaWv"}},{"added_at":"2025-12-28T17:59:05Z","track":{"album":{"album_type":"album","artists":[{"external_urls":{"spotify":"https://open.spotify.com/artist/55fhWPvDiMpLnE4ZzNXZyW"},"href":"https://api.spotify.com/v1/artists/55fhWPvDiMpLnE4ZzNXZyW","id":"55fhWPvDiMpLnE4ZzNXZyW","name":"Noah
        Cyrus","type":"artist","uri":"spotify:artist:55fhWPvDiMpLnE4ZzNXZyW"}],"available_markets":["AR","AU","AT","BE","BO","BR","BG","CA","CL","CO","CR","CY","CZ","DK","DO","DE","EC","EE","SV","FI","FR","GR","GT","HN","HK","HU","IS","IE","IT","LV","LT","LU","MY","MT","MX","NL","NZ","NI","NO","PA","PY","PE","PH","PL","PT","SG","SK","ES","SE","CH","TW","TR","UY","US","GB","AD","LI","MC","ID","JP","TH","VN","RO","IL","ZA","SA","AE","BH","QA","OM","KW","EG","MA","DZ","TN","LB","JO","PS","IN","BY","KZ","MD","UA","AL","BA","HR","ME","MK","RS","SI","KR","BD","PK","LK","GH","KE","NG","TZ","UG","AG","AM","BS","BB","BZ","BT","BW","BF","CV","CW","DM","FJ","GM","GE","GD","GW","GY","HT","JM","KI","LS","LR","MW","MV","ML","MH","FM","NA","NR","NE","PW","PG","PR","WS","SM","ST","SN","SC","SL","SB","KN","LC","VC","SR","TL","TO","TT","TV","VU","AZ","BN","BI","KH","CM","TD","KM","GQ","SZ","GA","GN","KG","LA","MO","MR","MN","NP","RW","TG","UZ","ZW","BJ","MG","MU","MZ","AO","CI","DJ","ZM","CD","CG","IQ","LY","TJ","VE","ET","XK"],"external_urls":{"spotify":"https://open.spotify.com/album/4frBxYchAwQD5z8Z6VTrF3"},"href":"https://api.spotify.com/v1/albums/4frBxYchAwQD5z8Z6VTrF3","id":"4frBxYchAwQD5z8Z6VTrF3","images":[{"height":640,"width":640,"url":"https://i.scdn.co/image/ab67616d0000b273116f184b2510ff64c96c6baa"},{"height":300,"width":300,"url":"https://i.scdn.co/image/ab67616d00001e02116f184b2510ff64c96c6baa"},{"height":64,"width":64,"url":"https://i.scdn.co/image/ab67616d00004851116f184b2510ff64c96c6baa"}],"is_playable":true,"name":"The
        Hardest Part","release_date":"2022-09-16","release_date_precision":"day","total_tracks":12,"type":"album","uri":"spotify:album:4frBxYchAwQD5z8Z6VTrF3"},"artists":[{"external_urls":{"spotify":"https://open.spotify.com/artist/55fhWPvDiMpLnE4ZzNXZyW"},"href":"https://api.spotify.com/v1/artists/55fhWPvDiMpLnE4ZzNXZyW","id":"55fhWPvDiMpLnE4ZzNXZyW","name":"Noah
        Cyrus","type":"artist","uri":"spotify:artist:55fhWPvDiMpLnE4ZzNXZyW"}],"available_markets":["AR","AU","AT","BE","BO","BR","BG","CA","CL","CO","CR","CY","CZ","DK","DO","DE","EC","EE","SV","FI","FR","GR","GT","HN","HK","HU","IS","IE","IT","LV","LT","LU","MY","MT","MX","NL","NZ","NI","NO","PA","PY","PE","PH","PL","PT","SG","SK","ES","SE","CH","TW","TR","UY","US","GB","AD","LI","MC","ID","JP","TH","VN","RO","IL","ZA","SA","AE","BH","QA","OM","KW","EG","MA","DZ","TN","LB","JO","PS","IN","BY","KZ","MD","UA","AL","BA","HR","ME","MK","RS","SI","KR","BD","PK","LK","GH","KE","NG","TZ","UG","AG","AM","BS","BB","BZ","BT","BW","BF","CV","CW","DM","FJ","GM","GE","GD","GW","GY","HT","JM","KI","LS","LR","MW","MV","ML","MH","FM","NA","NR","NE","PW","PG","PR","WS","SM","ST","SN","SC","SL","SB","KN","LC","VC","SR","TL","TO","TT","TV","VU","AZ","BN","BI","KH","CM","TD","KM","GQ","SZ","GA","GN","KG","LA","MO","MR","MN","NP","RW","TG","UZ","ZW","BJ","MG","MU","MZ","AO","CI","DJ","ZM","CD","CG","IQ","LY","TJ","VE","ET","XK"],"disc_number":1,"duration_ms":193973,"explicit":true,"external_ids":{"isrc":"USQX92106082"},"external_urls":{"spotify":"https://open.spotify.com/track/3ONe6SKdO3uRrWLsZePF1p"},"href":"https://api.spotify.com/v1/tracks/3ONe6SKdO3uRrWLsZePF1p","id":"3ONe6SKdO3uRrWLsZePF1p","is_local":false,"is_playable":true,"name":"Mr.
        Percocet","popularity":47,"preview_url":null,"track_number":3,"type":"track","uri":"spotify:track:3ONe6SKdO3uRrWLsZePF1p"}},{"added_at":"2025-12-28T17:58:51Z","track":{"album":{"album_type":"album","artists":[{"external_urls":{"spotify":"https://open.spotify.com/artist/5K4W6rqBFWDnAN6FQUkS6x"},"href":"https://api.spotify.com/v1/artists/5K4W6rqBFWDnAN6FQUkS6x","id":"5K4W6rqBFWDnAN6FQUkS6x","name":"Kanye
        West","type":"artist","uri":"spotify:artist:5K4W6rqBFWDnAN6FQUkS6x"}],"available_markets":[],"external_urls":{"spotify":"https://open.spotify.com/album/340MjPcVdiQRnMigrPybZA"},"href":"https://api.spotify.com/v1/albums/340MjPcVdiQRnMigrPybZA","id":"340MjPcVdiQRnMigrPybZA","images":[{"height":640,"width":640,"url":"https://i.scdn.co/image/ab67616d0000b2736ba1cffc9b2c5469503430b3"},{"height":300,"width":300,"url":"https://i.scdn.co/image/ab67616d00001e026ba1cffc9b2c5469503430b3"},{"height":64,"width":64,"url":"https://i.scdn.co/image/ab67616d000048516ba1cffc9b2c5469503430b3"}],"is_playable":true,"name":"Donda","release_date":"2021-08-29","release_date_precision":"day","total_tracks":27,"type":"album","uri":"spotify:album:340MjPcVdiQRnMigrPybZA"},"artists":[{"external_urls":{"spotify":"https://open.spotify.com/artist/5K4W6rqBFWDnAN6FQUkS6x"},"href":"https://api.spotify.com/v1/artists/5K4W6rqBFWDnAN6FQUkS6x","id":"5K4W6rqBFWDnAN6FQUkS6x","name":"Kanye
        West","type":"artist","uri":"spotify:artist:5K4W6rqBFWDnAN6FQUkS6x"}],"available_markets":[],"disc_number":1,"duration_ms":178061,"explicit":false,"external_ids":{"isrc":"USUM72116303"},"external_urls":{"spotify":"https://open.spotify.com/track/3onYsG7nB3FwEVHYYWCrIM"},"href":"https://api.spotify.com/v1/tracks/3onYsG7nB3FwEVHYYWCrIM","id":"3onYsG7nB3FwEVHYYWCrIM","is_local":false,"is_playable":true,"name":"No
        Child Left Behind","popularity":0,"preview_url":null,"track_number":23,"type":"track","uri":"spotify:track:3onYsG7nB3FwEVHYYWCrIM"}}],"limit":5,"next":"https://api.spotify.com/v1/me/tracks?offset=5&limit=5","offset":0,"previous":null,"total":688}'
    headers:
      Transfer-Encoding:
      - chunked
      access-control-allow-credentials:
      - 'true'
      access-control-allow-headers:
      - Accept, App-Platform, Authorization, Content-Type, Origin, Retry-After, Spotify-App-Version,
        X-Cloud-Trace-Context, client-token, content-access-token
      access-control-allow-methods:
      - GET, POST, OPTIONS, PUT, DELETE, PATCH
      access-control-allow-origin:
      - '*'
      access-control-max-age:
      - '604800'
      alt-svc:
      - h3=":443"; ma=2592000,h3-29=":443"; ma=2592000
      - h3=":443"; ma=2592000,h3-29=":443"; ma=2592000
      cache-control:
      - private, max-age=0
      content-encoding:
      - gzip
      content-type:
      - application/json; charset=utf-8
      date:
      - Mon, 29 Dec 2025 13:32:18 GMT
      etag:
      - '"MC-IjljNTliZTliMzQyZTIzNzM4YzZjNTkxN2FlNzI2Mzc5Ig=="'
      server:
      - envoy
      strict-transport-security:
      - max-age=31536000
      via:
      - HTTP/2 edgeproxy, 1.1 google
      x-content-type-options:
      - nosniff
      x-robots-tag:
      - noindex, nofollow
    status:
      code: 200
      message: OK
version: 1
